{
    "addr": "0.0.0.0",
    "port": 8000,

    "statics": [
        {
            "url":  "/",
            "path": "."
        }
    ],
    "proxies": [
        {
            "url": "/api",
            "backend": "http://127.0.0.1:8080"
        }
    ]
}
